/*==============================================================*/
/* Nom de SGBD :  PostgreSQL 8                                  */
/* Date de création :  21/10/2008 12:11:00                      */
/*==============================================================*/

/*==============================================================*/
/* Table : ACTIVITE                                             */
/*==============================================================*/
create table ACTIVITE (
   C_PROG               NUMERIC(2)           not null,
   N_MAREE              NUMERIC(4)           not null,
   D_OBS                DATE                 not null,
   H_OBS                DATE                 not null,
   C_NON_COUP_DE_SENNE  NUMERIC(2)           not null,
   C_MODE_DETECT        NUMERIC(2)           null,
   C_BEAUFORT           NUMERIC(2)           null,
   C_ACT_ENV            NUMERIC(2)           null,
   C_ACT_BATEAU         NUMERIC(2)           not null,
   Q_CWP                NUMERIC(1)           not null,
   V_LAT                NUMERIC(4)           not null,
   V_LON                NUMERIC(5)           not null,
   V_VITESSE_BAT        NUMERIC(3,1)         null,
   V_TEMP_SURF          NUMERIC(5,2)         null,
   V_VITESSE_VENT       NUMERIC(3)           null,
   V_DIST_SYST_OBS      FLOAT4               null,
   L_COM_ACT            VARCHAR(1024)        null,
   constraint PK_ACTIVITE primary key (C_PROG, N_MAREE, D_OBS, H_OBS)
);

comment on table ACTIVITE is
'On appelle activité une opération élémentaire effectuée par le bateau. La table ACT_BATEAU qualifie la nature de cette activité. 
L''activité est spécifiée par une petite dizaine d''attributs parmi lesquels les plus importants sont les références au temps (date, heure) et au positionnement géographique du bâtiment.
Les attributs d''environnement (température, courant, vent ) sont éventuellement renseignés.';

/*==============================================================*/
/* Table : ACT_BATEAU    = ActiviteBateau                       */
/*==============================================================*/
create table ACT_BATEAU (
   C_ACT_BATEAU         NUMERIC(2)           not null,
   L_ACT_BATEAU         VARCHAR(64)          not null,
   constraint PK_ACT_BATEAU primary key (C_ACT_BATEAU)
);

comment on table ACT_BATEAU is
'Définit les opérations élémentaires éffectuées par le bateau :

0	Au port
1	Transit ( route sans recherche )
2	Recherche ( général )
3	Recherche exclusive d''objets flottants
4	Route vers des systèmes observés
5	Thonier arrivant sur le système détecté
6	Début de pêche ( larguage du skiff )
7	Fin de pêche ( remontée du skiff)
...

99	Autres ( à préciser dans les notes )
';

/*==============================================================*/
/* Table : ACT_ENV    = ActiviteEnvironnante                    */
/*==============================================================*/
create table ACT_ENV (
   C_ACT_ENV            NUMERIC(2)           not null,
   L_ACT_ENV            VARCHAR(64)          not null,
   constraint PK_ACT_ENV primary key (C_ACT_ENV)
);

comment on table ACT_ENV is
'Définit la présence de  ...  à proximité du bateau : 

0	Indéterminé
1	Seul dans la zone
2	Dans un groupe, avec autre(s) thonier(s) visible(s) au radar
3	De même engin et de même pavillon
4	D''engins différents et de même pavillon
5	De même engin et de pavillons différents
6	D''engins et de pavillons différents
';

/*==============================================================*/
/* Table : ACT_SYSTOBS                                          */
/*==============================================================*/
create table ACT_SYSTOBS (
   C_PROG               NUMERIC(2)           not null,
   N_MAREE              NUMERIC(4)           not null,
   D_OBS                DATE                 not null,
   H_OBS                DATE                 not null,
   C_SYST_OBS           NUMERIC(2)           not null,
   constraint PK_ACT_SYSTOBS primary key (C_PROG, N_MAREE, D_OBS, H_OBS, C_SYST_OBS)
);

comment on table ACT_SYSTOBS is
'Définit les systèmes observés associés à l''activité en cours.
(aucun, un ou plusieurs)';

/*==============================================================*/
/* Table : BALISE_LUE                                           */
/*==============================================================*/
create table BALISE_LUE (
   C_PROG               NUMERIC(2)           not null,
   N_MAREE              NUMERIC(4)           not null,
   D_OBS                DATE                 not null,
   H_OBS                DATE                 not null,
   N_OBJET              NUMERIC(3)           not null,
   C_BALISE             NUMERIC(2)           not null,
   C_RECUP              VARCHAR(64)          null,
   C_MISE_A_L_EAU       VARCHAR(64)          null,
   C_VISITE             VARCHAR(64)          null,
   L_TYPE_AUTRE         VARCHAR(64)          null,
   constraint PK_BALISE_LUE primary key (C_PROG, N_MAREE, D_OBS, H_OBS, N_OBJET, C_BALISE)
);

comment on table BALISE_LUE is
'L''association ''Info Balise lue'' du fait des cardinalités assocciées au deux rôles donne lieu à la table BALISE_LUE dans le schéma relationnel. La table historise pour un type de balise donnée le/les codes lus lors de la visite, de la mise à l''eau ou de la relève. ';

/*==============================================================*/
/* Table : BATEAU = Bateau                                      */
/*==============================================================*/
create table BATEAU (
   C_BAT                NUMERIC(4)           not null,
   C_TYP_B              NUMERIC(2)           null,
   C_CAT_B              NUMERIC(2)           null,
   C_PAYS               NUMERIC(3)           null,
   C_QUILLE             NUMERIC(4)           null,
   C_FLOTTE             NUMERIC(3)           null,
   AN_SERV              NUMERIC(4)           null,
   D_CHGT_PAV           DATE                 null,
   V_L_HT               NUMERIC(6,1)         null,
   V_CT_M3              NUMERIC(5)           null,
   V_P_CV               NUMERIC(5)           null,
   V_MAX_RECH           NUMERIC(3,1)         null,
   L_BAT                VARCHAR(32)          not null,
   L_COM_B              VARCHAR(255)         null,
   constraint PK_BATEAU primary key (C_BAT)
);

comment on table BATEAU is
'La table historise les bateaux des deux pêcheries O. Atlantique et O. Indien. 

Le numéro de bateau constitue la clé primaire de la table.

La table est unique et sera actualisée de manière synchrone aux évolution du fichier TURBOBAT. Une source unique informe les noeuds du réseau des mises à jour à effectuer.

Quand une caractéristique d''un navire change (pavillon par exemple), un nouveau bateau est  introduit et un nouveau code est attribué. les coordonnées de la "version" précédente restent dans la base. 

La SUPPRESSION d''une occurence de BATEAU est INTERDITE.

Le code quille (code origine) a été introduit pour faciliter le suivi d''un bateau dans le temps. La valeur 999 sera initialement affectée à cet attribut.';

comment on column BATEAU.C_TYP_B is
'Code numérique du type de bateau';

comment on column BATEAU.C_CAT_B is
'Code numérique de la catégorie de bateau';

comment on column BATEAU.C_PAYS is
'Code numérique du pays';

comment on column BATEAU.C_QUILLE is
'Code quille : l''attribut permet de reconstituer (requête simple) l''histoire de tout  bateau dans la pêcherie - 999 si ce code n''est pas encore défini.';

comment on column BATEAU.AN_SERV is
'Année service : année de mise en service du bateau selon les caractéristiques mentionnées';

comment on column BATEAU.V_L_HT is
'Long hors_toute : longueur hors-toutes exprimées en mètres';

comment on column BATEAU.V_CT_M3 is
'Capacité Transp : volume des cuves du bateau exprimé en mètres cubes.';

comment on column BATEAU.V_P_CV is
'Puissance moteur : Puissance exprimée en CV';

comment on column BATEAU.V_MAX_RECH is
'Vitesse prospection : vitesse standard de prospection exprimée en noeuds';

comment on column BATEAU.L_BAT is
'Libellé du bateau (codage chaîne de 64 car)';

comment on column BATEAU.L_COM_B is
'Commentaire';

/*==============================================================*/
/* Table : CALEE                                                */
/*==============================================================*/
create table CALEE (
   C_PROG               NUMERIC(2)           not null,
   N_MAREE              NUMERIC(4)           not null,
   D_OBS                DATE                 not null,
   H_OBS                DATE                 not null,
   ID_CALEE             NUMERIC(3)           not null,
   C_R_COUP_NUL         NUMERIC(2)           null,
   H_DEB_CALEE          DATE                 not null,
   H_FIN_COULISSAGE     DATE                 null,
   H_FIN_CALEE          DATE                 null,
   V_PROF_MAX_ENGIN     NUMERIC(3)           null,
   V_VIT_COUR           NUMERIC(5,2)         null,
   V_DIR_COUR           NUMERIC(3)           null,
   V_PROF_SOMMET_BANC   NUMERIC(3)           null,
   V_PROF_MOYENNE_BANC  NUMERIC(3)           null,
   V_EPAISSEUR_BANC     NUMERIC(3)           null,
   F_UTIL_SONAR         BOOL                 null,
   L_SUPPLY             VARCHAR(32)          null,
   F_REJET_T            BOOL                 not null,
   F_REJET_F            BOOL                 not null,
   L_COMMENT_CALEE      VARCHAR(1024)        null,
   constraint PK_CALEE primary key (C_PROG, N_MAREE, D_OBS, H_OBS, ID_CALEE)
);

comment on table CALEE is
'La calée informe qu''un coup de pêche a eu lieu et que des captures ont été ou non réalisées. Dans le cas positif, le détail des captures (espèce, poids) est décrit dans les deux autres entités Capure thons et Capture faune assoc. La description d''une calée contient éventuellement des informations sur les étapes successives du coup de pêche ( heure de début, heure de fin de coulissage de la senne, heure de fin de la calée). Les paramètres concernant le banc,  profondeur du sommet du banc, profondeur moyenne du banc, l''épaisseur du banc, sont parfois renseignés. Les flag rejet indique si pour cette calée des espèces mises à bord ont été rejetées tant pour les thons que pour la faune associée. ';

comment on column CALEE.F_REJET_T is
'Indique la présence de rejets de thons, même si l''observateur n''a pu en faire l''identification.
Valeur : 0 non Aucune espèce codée
Valeur : 1 oui  Zero une ou plusieurs espèces codées
Valeur : 9 l''information n''est pas disponible ';

comment on column CALEE.F_REJET_F is
'Indique la présence de rejets d''autres espèces, même si l''observateur n''a pu en faire l''identification.
Valeur : 0 non Aucune espèce codée
Valeur : 1 oui  Zero une ou plusieurs espèces codées
Valeur : 9 l''information n''est pas disponible ';

/*==============================================================*/
/* Table : CALEE_SYSTOBS                                        */
/*==============================================================*/
create table CALEE_SYSTOBS (
   C_PROG               NUMERIC(2)           not null,
   N_MAREE              NUMERIC(4)           not null,
   D_OBS                DATE                 not null,
   H_OBS                DATE                 not null,
   ID_CALEE             NUMERIC(3)           not null,
   C_SYST_OBS           NUMERIC(2)           not null,
   constraint PK_CALEE_SYSTOBS primary key (C_PROG, N_MAREE, D_OBS, H_OBS, ID_CALEE, C_SYST_OBS)
);

comment on table CALEE_SYSTOBS is
'L''association donne lieu dans le schéma relationnel à la table CALEE_SYSTOBS. L''association ne disposant d''aucun attribut, la table résultante contient uniquement une clé primaire. Les occurences de la table listent pour une calée donnée les systèmes observés lors de sa réalisation :  Matte ( Pas de précision sur le type de banc, Balbaya, sardara, Brisant ou Thons en profondeur, Oiseaux, etc. . Le logicielde saisie  actuel autorise 6 possibilités au plus.
';

/*==============================================================*/
/* Table : CAPT_F                                               */
/*==============================================================*/
create table CAPT_F (
   C_ESP_F              NUMERIC(3)           not null,
   C_PROG               NUMERIC(2)           not null,
   N_MAREE              NUMERIC(4)           not null,
   D_OBS                DATE                 not null,
   H_OBS                DATE                 not null,
   ID_CALEE             NUMERIC(3)           not null,
   NO_ESP_F             NUMERIC(3)           not null,
   C_DEVENIR_F          NUMERIC(2)           null,
   C_RAISON_REJET       NUMERIC(2)           null,
   V_POIDS_ESTIM_F      NUMERIC(5,1)         null,
   V_NOMBRE_ESTIM_F     NUMERIC(5)           null,
   V_POIDS_MOY_F        NUMERIC(3)           null,
   V_TAILLE_MOY_F       NUMERIC(3)           null,
   L_COM_CAPT_F         VARCHAR(1024)        null,
   constraint PK_CAPT_F primary key (C_PROG, N_MAREE, D_OBS, C_ESP_F, H_OBS, ID_CALEE, NO_ESP_F)
);

comment on table CAPT_F is
'La table issue de cette entité contiendra le détail des captures des espèces  de la faune associée pour chaque calée positive. L''identifiant d''une capture permet de mentionner plusieurs fois la même espèce.  Quatre attribut , leurs valeurs respectives sont facultatives, précisent le volume de la capture :
            le poids estimé en tonnes
            le nombre estimé d''individus
            le poids moyen (en kg) de la capture
            la taille moyenne (en cm) des individus

L''attribut code devenir (obligatoire) précise si l''espèce est conservée à bord ou les conditions du rejet.

Dans le schéma relationnel, la table CAPT_F issue de l''entité est duppliquée dans la table CAPT_F_CC. Des valeurs élaborées par calcul seront attribuées aux colonnes quantitatives non informées dans CAPT_F lors de la saisie. 


';

comment on column CAPT_F.V_POIDS_MOY_F is
'Estimation du patron :
Poids moyen de l''espèce exprimé en Kg (Individu moyen) dans le banc (YFT, SKJ ou BET)
';

/*==============================================================*/
/* Table : CAPT_F_CC                                            */
/*==============================================================*/
create table CAPT_F_CC (
   C_PROG               NUMERIC(2)           not null,
   N_MAREE              NUMERIC(4)           not null,
   D_OBS                DATE                 not null,
   H_OBS                DATE                 not null,
   ID_CALEE             NUMERIC(3)           not null,
   C_ESP_F              NUMERIC(3)           not null,
   NO_ESP_F_CC          NUMERIC(3)           not null,
   C_RAISON_REJET       NUMERIC(2)           null,
   C_OCEAN              NUMERIC(2)           not null,
   LON_C_ESP_F          NUMERIC(3)           not null,
   ANNEE_R_FAUNE_ASSOC  INT4                 not null,
   C_DEVENIR_F          NUMERIC(2)           null,
   V_POIDS_ESTIM_F_CC   NUMERIC(5,1)         not null,
   V_NOMBRE_ESTIM_F_CC  NUMERIC(6,1)         not null,
   V_POIDS_MOY_F_CC     NUMERIC(4,1)         not null,
   V_TAILLE_MOY_F_CC    NUMERIC(4,1)         not null,
   L_COM_CAPT_F_CC      VARCHAR(1024)        null,
   constraint PK_CAPT_F_CC primary key (C_PROG, N_MAREE, D_OBS, H_OBS, ID_CALEE, C_ESP_F, NO_ESP_F_CC)
);

comment on table CAPT_F_CC is
'Se reporter à la définition de CAPT_F';

/*==============================================================*/
/* Table : CAPT_T                                               */
/*==============================================================*/
create table CAPT_T (
   C_PROG               NUMERIC(2)           not null,
   N_MAREE              NUMERIC(4)           not null,
   D_OBS                DATE                 not null,
   H_OBS                DATE                 not null,
   ID_CALEE             NUMERIC(3)           not null,
   N_CAPT_T             NUMERIC(3)           not null,
   C_RAISON_REJET       NUMERIC(2)           null,
   C_ESP                NUMERIC(3)           not null,
   C_CAT_P              NUMERIC(2)           not null,
   V_POIDS_THON_CAP     NUMERIC(3)           not null,
   CUVE                 VARCHAR(3)           null,
   F_SUR_PONT           BOOL                 not null,
   F_REJET              BOOL                 not null,
   L_COM_CAPT_T         VARCHAR(1024)        null,
   constraint PK_CAPT_T primary key (C_PROG, N_MAREE, D_OBS, H_OBS, ID_CALEE, N_CAPT_T)
);

comment on table CAPT_T is
'La table issue de cette entité contiendra le détail des captures de thon pour chaque calée positive. L''information majeure est le poids de thons capturés (exprimé en tonnes). Une capture concerne uniquement une espèce. La catégorie de poids de l''espèce est toujours mentionnée (Albacore de 11 à 30 kg par exemple). L''identifiant est complété par un numéro (1, 2, etc.) qui permet préciser au besoin la part de la capture rejetée et celle conservée à bord. Deux flags obligatoires précisent si la capture a été montée à bord et si elle a été rejetée. Le seul attribut facultatif concerne la cuve.';

comment on column CAPT_T.F_SUR_PONT is
'Rejet mis sur le pont
Valeur : 0 non Aucune espèce codée
Valeur : 1 oui  Zero une ou plusieurs espèces codées
Valeur : 9 l''information n''est pas disponible ';

/*==============================================================*/
/* Table : CAT_BATEAU    = CategorieBateau                      */
/*==============================================================*/
create table CAT_BATEAU (
   C_CAT_B              NUMERIC(2)           not null,
   L_JAUGE              VARCHAR(64)          not null,
   L_CAPAC              VARCHAR(64)          not null,
   constraint PK_CAT_BATEAU primary key (C_CAT_B)
);

comment on table CAT_BATEAU is
'Les catégories de taille des bateaux exprimées en jauge et capacité de transport.

Exemple :

1   - 95 TX    20 tonnes
2   95 - 189 TX    40 tonnes
3   190 - 299 TX    90 tonnes
4   300- 449 TX    200 - 400 tonnes
5   450 - 749 TX    401 - 600 tonnes
...

Note : Un tonneau = 2.83 m3';

comment on column CAT_BATEAU.C_CAT_B is
'Code numérique de la catégorie de bateau';

comment on column CAT_BATEAU.L_JAUGE is
'Jauge exprimée en tonneaux';

comment on column CAT_BATEAU.L_CAPAC is
'Capacité exprimée en tonnes';

/*==============================================================*/
/* Table : CAT_POIDS      = CategoriePoids                      */
/*==============================================================*/
create table CAT_POIDS (
   C_ESP                NUMERIC(3)           not null,
   C_CAT_P              NUMERIC(2)           not null,
   L_CAT_P              VARCHAR(32)          not null,
   constraint PK_CAT_POIDS primary key (C_ESP, C_CAT_P)
);

/*==============================================================*/
/* Table : COUP_NUL    = CauseCoupNul                           */
/*==============================================================*/
create table COUP_NUL (
   C_R_COUP_NUL         NUMERIC(2)           not null,
   L_R_COUP_NUL         VARCHAR(64)          not null,
   constraint PK_COUP_NUL primary key (C_R_COUP_NUL)
);

comment on table COUP_NUL is
'Pourquoi un coup de pêche devient nul :

0	Inconnue
1	Poisson ayant coulé
2	Poisson allant trop vite
3	Courant trop fort
4	Trop de poisson


';

/*==============================================================*/
/* Table : DCP                                                  */
/*==============================================================*/
create table DCP (
   C_PROG               NUMERIC(2)           not null,
   N_MAREE              NUMERIC(4)           not null,
   D_OBS                DATE                 not null,
   H_OBS                DATE                 not null,
   N_OBJET              NUMERIC(3)           not null,
   C_NATURE_DCP         NUMERIC(2)           null,
   C_DEVENIR_DCP        NUMERIC(2)           null,
   C_OPERA_OBJ          NUMERIC(2)           null,
   NB_JOURS             NUMERIC(5)           null,
   L_COM_O              VARCHAR(1024)        null,
   L_SUPPLY_O           VARCHAR(32)          null,
   constraint PK_DCP primary key (C_PROG, N_MAREE, D_OBS, H_OBS, N_OBJET)
);

comment on table DCP is
'La table DCP issue de l''entité Objet flottant stocke les occurrences de DCP mis à l''eau, visités, etc.
L''objet flottant est spécifié par un type, une opération, et un devenir. Il dispose d''un seul attribut quantitatif ''Nb jours objet à l''eau''';

/*==============================================================*/
/* Table : DEV_DCP       = DevenirObjet                         */
/*==============================================================*/
create table DEV_DCP (
   C_DEVENIR_DCP        NUMERIC(2)           not null,
   L_DEVENIR_DCP        VARCHAR(64)          not null,
   constraint PK_DEV_DCP primary key (C_DEVENIR_DCP)
);

comment on table DEV_DCP is
'Devenir du DCP 

1	Abandonné
2	Pose d''une balise
3	Remonté à bord
4	Détruit

...';

/*==============================================================*/
/* Table : DEV_F        = DevenirFaune                          */
/*==============================================================*/
create table DEV_F (
   C_DEVENIR_F          NUMERIC(2)           not null,
   L_DEVENIR_F          VARCHAR(128)         not null,
   constraint PK_DEV_F primary key (C_DEVENIR_F)
);

comment on table DEV_F is
'Détermine le devenir des captures des espèces de la faune associée 

1	Échappe du filet (pour requin-baleine et cétacés)
2	Sortie vivant du filet (pour requin-baleine et cétacés)
3	Sortie mort du filet (pour requin-baleine et cétacés)
4	Rejeté vivant à la mer
...
';

/*==============================================================*/
/* Table : ECHANT_F                                             */
/*==============================================================*/
create table ECHANT_F (
   C_PROG               NUMERIC(2)           not null,
   N_MAREE              NUMERIC(4)           not null,
   D_OBS                DATE                 not null,
   H_OBS                DATE                 not null,
   ID_CALEE             NUMERIC(3)           not null,
   ID_ECHANT_F          NUMERIC(2)           not null,
   L_COM_ECH_F          VARCHAR(1024)        null,
   constraint PK_ECHANT_F primary key (C_PROG, N_MAREE, D_OBS, H_OBS, ID_CALEE, ID_ECHANT_F)
);

comment on table ECHANT_F is
'Pour les espèces autres que les thonidés, une calée peut faire l''objet d''un échantillon. La table dérivée contient l''identifiant de l''échantillon. Cette table est essentiellement le symétrique de ECHANT_T - elle est à priori superflue ...';

/*==============================================================*/
/* Table : ECHANT_T                                             */
/*==============================================================*/
create table ECHANT_T (
   C_PROG               NUMERIC(2)           not null,
   N_MAREE              NUMERIC(4)           not null,
   D_OBS                DATE                 not null,
   H_OBS                DATE                 not null,
   ID_CALEE             NUMERIC(3)           not null,
   ID_ECHANT_T          NUMERIC(2)           not null,
   C_CRP                CHAR(1)              null,
   L_COMMENT_ECH        VARCHAR(1024)        null,
   constraint PK_ECHANT_T primary key (C_PROG, N_MAREE, D_OBS, H_OBS, ID_CALEE, ID_ECHANT_T)
);

comment on table ECHANT_T is
'Une calée peut faire l''objet d''un ou plusieurs échantillons de taille. La table dérivée contient essentiellement l''identifiant de l''échantillon et un code qui spécifie s''il s''agit de thons rejetés ou non. Dans la version 2008/04 des formulaires du bordereau C1 il est stipulé que seul les rejets peuvent faire l''objet d''échantillon (Banyuls 2008). La colonne reste nécessaire pour le stockage des données saisies précédemment. L''échantillon est monospécifique, les espèces possibles sont : YFT, BET, SKJ, Auxides, et ou Ravil.


';

/*==============================================================*/
/* Table : ESPECE_F   = EspeceFaune                             */
/*==============================================================*/
create table ESPECE_F (
   C_ESP_F              NUMERIC(3)           not null,
   C_GR_ESP_F           NUMERIC(2)           not null,
   C_ESP_F_3L           VARCHAR(3)           not null,
   L_ESP_FS             VARCHAR(64)          not null,
   L_ES_ESP_F           VARCHAR(64)          null,
   L_UK_ESP_F           VARCHAR(64)          null,
   L_FR_ESP_F           VARCHAR(64)          null,
   constraint PK_ESPECE_F primary key (C_ESP_F)
);

comment on table ESPECE_F is
'Les espèces de de la faune associée 
(code, groupe, code A3, nom scientifique, nom SP, nom GB, nom FR)

101	1	BLM	Makaira indica	Aguja negra	Black marlin	Makaire noir
102	1	BUM	Makaira nigricans	Aguja azul del Atlántico	Atlantic blue marlin	Makaire bleu
103	1	FIS	xx			Famille des Istiophoridés
104	1	SAI	Istiophorus albicans	Pez vela del Atlántico	Atlantic sailfish	Voilier de l''Atlantique
105	1	SAP	Istiophorus platypterus	Pez vela del Indo-Pacífico	Indo-Pacific sailfish	Voilier de l''Océan Indien
106	1	SHS	Tetrapturus angustirostris	Marlín trompa corta	Shortbill spearfish	Makaire à rostre court
107	1	SPF	Tetrapturus pfluegeri	Aguja picuda	Longbill spearfish	Makaire bécune
108	1	STM	Tetrapturus audax	Marlín rayado	Striped marlin	Marlin rayé
109	1	SWO	Xiphias gladius	Pez espada	Swordfish	Espadon
110	1	WHM	Tetrapterus albidus	Aguja blanca		Makaire blanc
201	2	ANA	Aetobatus narinari	Chucho pintado	Spotted eagle ray	Aigle de mer léopard
202	2	APE	Alopias pelagicus	Zorro pelágico	Pelagic thresher	Renard pélagique
203	2	ASU	Alopias superciliosus	Zorro ojón	Bigeye thresher	Renard à gros yeux
204	2	AVU	Alopias vulpinus	Zorro	Thresher	Renard

...
';

/*==============================================================*/
/* Table : ESPECE_T     = EspeceThon                            */
/*==============================================================*/
create table ESPECE_T (
   C_ESP                NUMERIC(3)           not null,
   C_ESP_3L             VARCHAR(3)           not null,
   L_ESP                VARCHAR(32)          not null,
   L_ESP_S              VARCHAR(32)          null,
   constraint PK_ESPECE_T primary key (C_ESP)
);

comment on table ESPECE_T is
'Les espèces de thon capturées, mesurées et ou observés :

1	YFT	Albacore	Thunnus albacares
2	SKJ	Listao	Katsuwonus pelamis
3	BET	Patudo	Thunnus obesus
4	ALB	Germon	Thunnus alalunga
...';

/*==============================================================*/
/* Table : ESP_DCP                                              */
/*==============================================================*/
create table ESP_DCP (
   C_ESP_F              NUMERIC(3)           not null,
   C_PROG               NUMERIC(2)           not null,
   N_MAREE              NUMERIC(4)           not null,
   D_OBS                DATE                 not null,
   H_OBS                DATE                 not null,
   N_OBJET              NUMERIC(3)           not null,
   C_STATUT_ESP_DCP     NUMERIC(1)           not null,
   V_NOMBRE_ESP_DCP     NUMERIC(5)           not null,
   constraint PK_ESP_DCP primary key (C_PROG, N_MAREE, D_OBS, H_OBS, C_ESP_F, N_OBJET, C_STATUT_ESP_DCP)
);

comment on table ESP_DCP is
'L''entité Esp DCP (Table ESP_DCP) précise les espèces de la faune associée observée sous le DCP lors de sa visite ou de sa relève. Le statut de l''espèce est précisé ( libre, maillée vivante, etc.  ) et une estimation du nombre d''individus est donnée. ';

/*==============================================================*/
/* Table : ESTIM_BANC                                           */
/*==============================================================*/
create table ESTIM_BANC (
   C_ESP                NUMERIC(3)           not null,
   C_PROG               NUMERIC(2)           not null,
   N_MAREE              NUMERIC(4)           not null,
   D_OBS                DATE                 not null,
   H_OBS                DATE                 not null,
   ID_CALEE             NUMERIC(3)           not null,
   V_POIDS_ESP_B        NUMERIC(4)           null,
   V_POIDS_ESP_I        NUMERIC(3)           null,
   constraint PK_ESTIM_BANC primary key (C_PROG, N_MAREE, D_OBS, C_ESP, H_OBS, ID_CALEE)
);

comment on table ESTIM_BANC is
'La table ESTIM_BANC donne pour les trois espèces principales (YFT, SKJ, BET) ou l''ensemble des espèce une estimation de la taille du banc. Cette estimation est donnée en poids (tonnes) ou en poids moyen (kg). Le cas ''toutes espèces'' est traité comme s''il s''agissait d''une espèce individuelle. La table ESPECE_T est doté d''une occurence ''Toutes espèces''.
';

/*==============================================================*/
/* Table : ESTIM_BANC_OBJ                                       */
/*==============================================================*/
create table ESTIM_BANC_OBJ (
   C_PROG               NUMERIC(2)           not null,
   N_MAREE              NUMERIC(4)           not null,
   D_OBS                DATE                 not null,
   H_OBS                DATE                 not null,
   N_OBJET              NUMERIC(3)           not null,
   C_ESP                NUMERIC(3)           not null,
   V_POIDS_ESP_O        NUMERIC(4)           null,
   constraint PK_ESTIM_BANC_OBJ primary key (C_PROG, N_MAREE, D_OBS, H_OBS, N_OBJET, C_ESP)
);

/*==============================================================*/
/* Table : GR_ESP_F       = GroupeEspeceFaune                   */
/*==============================================================*/
create table GR_ESP_F (
   C_GR_ESP_F           NUMERIC(2)           not null,
   L_G_ESP              VARCHAR(32)          null,
   constraint PK_GR_ESP_F primary key (C_GR_ESP_F)
);

comment on table GR_ESP_F is
'Les groupes d''espèces de la faune associée

1	Poissons Porte_Epée
2	Sélaciens
3	Autres poissons
4	Tortues

...';

/*==============================================================*/
/* Table : LONPOI_T      = TaillePoidsFaune                     */
/*==============================================================*/
create table LONPOI_T (
   C_OCEAN              NUMERIC(2)           not null,
   C_ESP                NUMERIC(3)           not null,
   ANNEE_R_THON         INT4                 not null,
   RPL_A_T              NUMERIC(10,9)        not null,
   RPL_B_T              NUMERIC(6,5)         not null,
   constraint PK_LONPOI_T primary key (C_OCEAN, C_ESP, ANNEE_R_THON)
);

comment on table LONPOI_T is
'Les relations taille-poids : paramètres des équations longueur - poids par espèce et par océan  (Thons)

Fomule : W = a*L**b

Exemples pour YFT dans l''océan Atlantique (1) et  Indien (2) :
Espèce		Océan		a		b
1		1		0.000021527	2.976
1		2		0.00000748	3.2526';

/*==============================================================*/
/* Table : LONPOI_F    = TaillePoidsThon                        */
/*==============================================================*/
create table LONPOI_F (
   C_OCEAN              NUMERIC(2)           not null,
   C_ESP_F              NUMERIC(3)           not null,
   ANNEE_R_FAUNE_ASSOC  INT4                 not null,
   RPL_A_F              NUMERIC(10,9)        not null,
   RPL_B_F              NUMERIC(6,5)         not null,
   constraint PK_LONPOI_F primary key (C_OCEAN, C_ESP_F, ANNEE_R_FAUNE_ASSOC)
);

comment on table LONPOI_F is
'Les relations taille-poids : paramètres des équations longueur - poids par espèce et par océan  (faune associée)

Fomule : W = a*L**b

';

/*==============================================================*/
/* Table : MAREE                                                */
/*==============================================================*/
create table MAREE (
   C_PROG               NUMERIC(2)           not null,
   N_MAREE              NUMERIC(4)           not null,
   C_BAT                NUMERIC(4)           not null,
   ID_OBSERVATEUR       NUMERIC(3)           not null,
   C_OCEAN              NUMERIC(2)           null,
   ID_SENNE             NUMERIC(2)           not null,
   D_DEBUT              DATE                 not null,
   D_FIN                DATE                 not null,
   L_ORGANISME          VARCHAR(128)         null,
   D_DBQ                DATE                 null,
   L_COM_MAREE          VARCHAR(1024)        null,
   NIVEAU_VERIF_MAREE   INT2                 null,
   constraint PK_MAREE primary key (C_PROG, N_MAREE)
);

comment on table MAREE is
'La marée  d''un bateau décrit l''intervalle de temps entre une date départ et la date d''arrivée au port pour débarquement ou relève d''équipage.';

/*==============================================================*/
/* Table : MODE_DETECT = ModeDetection                          */
/*==============================================================*/
create table MODE_DETECT (
   C_MODE_DETECT        NUMERIC(2)           not null,
   L_MODE_DETECT        VARCHAR(64)          not null,
   constraint PK_MODE_DETECT primary key (C_MODE_DETECT)
);

comment on table MODE_DETECT is
'Spécifie le mode de détection du banc de thons 

0	Mode de détection inconnu
1	Oiel nu
2	Jumelles
3	Radar oiseaux
4	Radar
5	Sonar
 ...';

/*==============================================================*/
/* Table : NON_COUP_SENNE  = CauseNonCoupSenne                  */
/*==============================================================*/
create table NON_COUP_SENNE (
   C_NON_COUP_DE_SENNE  NUMERIC(2)           not null,
   L_NON_COUP_DE_SENNE  VARCHAR(128)         not null,
   constraint PK_NON_COUP_SENNE primary key (C_NON_COUP_DE_SENNE)
);

comment on table NON_COUP_SENNE is
'Détermine la raison pour laquelle la senne n''a pas été larguée

0	Rien à signaler ( pas d''observat
1	Banc trop petit
2	Poissons trop petits ( poids, ta
3	Par décision de l''armateur ( ex:
4	Se déplace trop rapidement
5	Le poisson plonge avant la calée

...';

/*==============================================================*/
/* Table : OBSERVATEUR                                          */
/*==============================================================*/
create table OBSERVATEUR (
   ID_OBSERVATEUR       NUMERIC(3)           not null,
   NOM_OBSERVATEUR      VARCHAR(32)          not null,
   PRENOM_OBSERVATEUR   VARCHAR(32)          not null,
   constraint PK_OBSERVATEUR primary key (ID_OBSERVATEUR)
);

comment on table OBSERVATEUR is
'Seuls les noms et prénoms des observateurs sont archivés';

/*==============================================================*/
/* Table : OCEAN   = Ocean                                      */
/*==============================================================*/
create table OCEAN (
   C_OCEAN              NUMERIC(2)           not null,
   L_OCEAN              VARCHAR(64)          not null,
   constraint PK_OCEAN primary key (C_OCEAN)
);

comment on table OCEAN is
'Codification des grandes zones océaniques. 

Exemple : 

Code         Libellé

1	Atlantique
2	Indien

...';

/*==============================================================*/
/* Table : OPERA_DCP  = OperationObjet                          */
/*==============================================================*/
create table OPERA_DCP (
   C_OPERA_OBJ          NUMERIC(2)           not null,
   L_OPERA_OBJ          VARCHAR(64)          not null,
   constraint PK_OPERA_DCP primary key (C_OPERA_OBJ)
);

comment on table OPERA_DCP is
'Codes des opérations possibles sur un DCP

1	Mise à l''eau
2	Visite/Rencontre
3	Pêche
4	Récupération sans pêche

...';

/*==============================================================*/
/* Table : PAYS    = Pays                                       */
/*==============================================================*/
create table PAYS (
   C_PAYS               NUMERIC(3)           not null,
   L_PAYS               VARCHAR(64)          not null,
   constraint PK_PAYS primary key (C_PAYS)
);

comment on table PAYS is
'Le pavillon du bateau. 

Exemples :
1     FR       France
2     SN      Sénégal
3     CI        Côte d''Ivoire
4     SP      Espagne
...';

comment on column PAYS.C_PAYS is
'Code numérique du pays';

comment on column PAYS.L_PAYS is
'Nom du pays';

/*==============================================================*/
/* Table : PROGRAMME   = Programme                              */
/*==============================================================*/
create table PROGRAMME (
   C_PROG               NUMERIC(2)           not null,
   L_PROG               VARCHAR(64)          null,
   constraint PK_PROGRAMME primary key (C_PROG)
);

comment on table PROGRAMME is
'La table programme historise les cadres successifs dans les lesquels des observateurs ont été embarqués à bord des thonniers

1	DCR (Data Collection Regulation)
2	Patudo
3	Moratoire
4	SFA
5	Embarquement IRD
9	Indéterminé
';

/*==============================================================*/
/* Table : RAISON_REJET  = RaisonRejet                          */
/*==============================================================*/
create table RAISON_REJET (
   C_RAISON_REJET       NUMERIC(2)           not null,
   L_RAISON_REJET       VARCHAR(32)          not null,
   constraint PK_RAISON_REJET primary key (C_RAISON_REJET)
);

comment on table RAISON_REJET is
'Codification de la raison du rejet :

1	Espèce
2	Taille
3	Cuves pleines


';

/*==============================================================*/
/* Table : ROUTE                                                */
/*==============================================================*/
create table ROUTE (
   C_PROG               NUMERIC(2)           not null,
   N_MAREE              NUMERIC(4)           not null,
   D_OBS                DATE                 not null,
   LOCH_MATIN           NUMERIC(6)           null,
   LOCH_SOIR            NUMERIC(6)           null,
   L_COM_ROUTE          VARCHAR(1024)        null,
   NIVEAU_VERIF_ROUTE   INT2                 null,
   constraint PK_ROUTE primary key (C_PROG, N_MAREE, D_OBS)
);

comment on table ROUTE is
'La route donne journellement le loch du matin et le loch du soir. Il est ainsi facile de déterminer la distance journalière parcourue par le bateau.

La mesure de la vitesse ( V ) est indispensable à la navigation. Elle permet par intégration (?D = V.?t) de connaître la distance (D) parcourue pendant un temps t. Cette intégration est automatiquement effectuée par les lochs modernes qui comportent donc un compteur de distance.';

/*==============================================================*/
/* Table : SENNE                                                */
/*==============================================================*/
create table SENNE (
   ID_SENNE             NUMERIC(2)           not null,
   LONGUEUR_SENNE       NUMERIC(5)           not null,
   CHUTE_SENNE          NUMERIC(4)           not null,
   POIDS_LEST_SENNE     NUMERIC(4)           null,
   constraint PK_SENNE primary key (ID_SENNE)
);

comment on table SENNE is
'Il s''agit de mémoriser quelques caractèristiques des sennes exploitées (longueur, chutte et poids du leste)
Le code 9 correspond au cas où aucun des pamamètres n''est connu.';

/*==============================================================*/
/* Table : STATUT_ESP_DCP  = StatutEspece                       */
/*==============================================================*/
create table STATUT_ESP_DCP (
   C_STATUT_ESP_DCP     NUMERIC(1)           not null,
   L_STATUT_ESP_DCP     VARCHAR(32)          not null,
   constraint PK_STATUT_ESP_DCP primary key (C_STATUT_ESP_DCP)
);

comment on table STATUT_ESP_DCP is
'Indique l''état de l''espèce (faune associée) observée sous le DCP 

1	maillée vivante
2	maillée morte
3	libre
';

/*==============================================================*/
/* Table : SYST_OBS     = SystemeObserve                        */
/*==============================================================*/
create table SYST_OBS (
   C_SYST_OBS           NUMERIC(2)           not null,
   L_SYST_OBS           VARCHAR(128)         not null,
   constraint PK_SYST_OBS primary key (C_SYST_OBS)
);

comment on table SYST_OBS is
'Codes des système observés

0	Aucun système
1	Matte ( pas de précision sur le type de banc )
2	Balbaya, sardara, brisant ou rou
3	Thons en profondeur
4	Oiseaux
5	Epave non balisée
6	Epave balisée
7	Charogne
8	Charogne balisée

...';

/*==============================================================*/
/* Table : TAILLE_F                                             */
/*==============================================================*/
create table TAILLE_F (
   C_PROG               NUMERIC(2)           not null,
   N_MAREE              NUMERIC(4)           not null,
   D_OBS                DATE                 not null,
   H_OBS                DATE                 not null,
   ID_CALEE             NUMERIC(3)           not null,
   ID_ECHANT_F          NUMERIC(2)           not null,
   C_ESP_F              NUMERIC(3)           not null,
   N_ESP_F              NUMERIC(3)           not null,
   V_LONG_F             NUMERIC(5)           not null,
   C_SEXE_F             NUMERIC(1)           null,
   L_REF_PHOTO          VARCHAR(128)         null,
   constraint PK_TAILLE_F primary key (C_PROG, N_MAREE, D_OBS, H_OBS, ID_CALEE, ID_ECHANT_F, C_ESP_F, N_ESP_F)
);

comment on table TAILLE_F is
'Comparée à la table TAILLE_T, la table TAILLE_F est organisée différemment. Pour une espèce donnée,  une longueur (exprimée en cm) est obligatoirement stipulée. Le sexe et la référence à une photo sont des colonnes optionnelles. La logueur V_LONG_F  (L1) dépend de l''espèce mesurée, Cf. l''entête du borderau de saisie C2. ';


/*==============================================================*/
/* Table : TAILLE_T                                             */
/*==============================================================*/
create table TAILLE_T (
   C_ESP                NUMERIC(3)           not null,
   C_PROG               NUMERIC(2)           not null,
   N_MAREE              NUMERIC(4)           not null,
   D_OBS                DATE                 not null,
   H_OBS                DATE                 not null,
   ID_CALEE             NUMERIC(3)           not null,
   ID_ECHANT_T          NUMERIC(2)           not null,
   C_LD1LF              NUMERIC(1)           not null,
   V_LONG_T             NUMERIC(6,1)         not null,
   V_EFF_T              NUMERIC(3)           not null,
   constraint PK_TAILLE_T primary key (C_PROG, N_MAREE, D_OBS, H_OBS, ID_CALEE, C_ESP, ID_ECHANT_T, C_LD1LF, V_LONG_T)
);

comment on table TAILLE_T is
'L''entité Taille thon décrit l''ensemble des effectifs par classe de taille d''une espèce de thonidé échantillonnée. Seules les classes d''effectif strictement positif sont archivées. Le type de mesure est spécifié LD1 ou LF.';


/*==============================================================*/
/* Table : TYPE_BALISE    = TypeBalise                          */
/*==============================================================*/
create table TYPE_BALISE (
   C_BALISE             NUMERIC(2)           not null,
   L_BALISE             VARCHAR(32)          not null,
   constraint PK_TYPE_BALISE primary key (C_BALISE)
);

comment on table TYPE_BALISE is
'Codes des types de balise

1	Radiogoniomètre
2	Radiogonio + GPS
3	GPS SHERPE
4	Satellite + échosondeur

...';

/*==============================================================*/
/* Table : TYPE_BATEAU    = TypeBateau                          */
/*==============================================================*/
create table TYPE_BATEAU (
   C_TYP_B              NUMERIC(2)           not null,
   L_TYP_B              VARCHAR(64)          not null,
   constraint PK_TYPE_BATEAU primary key (C_TYP_B)
);

comment on table TYPE_BATEAU is
'Définit plus finement l''armement utilisé pour la pêche.

Exemples :
1 xxxx yyyy Canne / glacier
2 xxxx yyyy Canne / congélateur
3 xxxx yyyy Mixte
4 xxxx yyyy Senneur avec appât
5 xxxx yyyy Senneur sans appât
6 xxxx yyyy Grand senneur
...';

comment on column TYPE_BATEAU.C_TYP_B is
'Code numérique du type de bateau';

comment on column TYPE_BATEAU.L_TYP_B is
'Type de bateau';

/*==============================================================*/
/* Table : TYPE_DCP     = TypeObjet                             */
/*==============================================================*/
create table TYPE_DCP (
   C_NATURE_DCP         NUMERIC(2)           not null,
   L_NATURE_DCP         VARCHAR(64)          not null,
   constraint PK_TYPE_DCP primary key (C_NATURE_DCP)
);

comment on table TYPE_DCP is
'Codes des dispositifs des objets susceptibles de concenter des poissons 

1	tas de paille
2	Palme de cocotier / palmier
3	Arbre ( ou branche )
4	Charogne ( préciser la nature dans les notes )
5	Charogne balisée
6	Radeau balisé en dérive ( ligne et filet )
7	DCP ( Dispositif de Concentration de Poisson )
8	Thonier ( ou skiff )
9	Bateau d''appui ( supply )

...';

/*==============================================================*/
/* Table : VENT_BEAUFORT    = VentBeaufort                      */
/*==============================================================*/
create table VENT_BEAUFORT (
   C_BEAUFORT           NUMERIC(2)           not null,
   L_DESCRIP_VENT       VARCHAR(32)          not null,
   L_VITESSE_VENT       VARCHAR(16)          not null,
   L_DESCRIP_MER        VARCHAR(64)          null,
   L_HAUT_MOY_VAGUE     VARCHAR(16)          null,
   constraint PK_VENT_BEAUFORT primary key (C_BEAUFORT)
);

comment on table VENT_BEAUFORT is
'Qualifie les conditions de vent et l''état de la mer pour l''activité en cours
(code, description du vent, vitesse du vent, état de la mer, hauteur moyenne des vagues)

0	Calme	<1	Calme	0
1	Très légère brise	1 - 3	Calme, ridée	0 - 0,1
2	Légère brise	4 - 6	Belle, vaguelettes	0,1 - 0,5
3	Petite brise	7 - 10	Peu agitée, vaguelettes surmontées de moutons	0,5 - 1,25
4	Jolie brise	11 - 16	Agitée, patites vagues, nombreux moutons	1,25 - 2,5

...';
